class Parent  {

    static int x= 10;
 static String str = "shivam";


       ParentMethod(){

      print(x);
     print(str);


}
}

   class child extends Parent {

    static int y =20;
   static String str2 = "kriti";

   childMethod(){


     print(y);
    print(str2);

 }

}

 void main(){

 Parent obj = new Parent();


  print(Parent.x);
  print(Parent.str);
  obj.ParentMethod();


 child obj2 = new child();

print(child.y);
print(child.str2);
obj2.childMethod();


}