class Parent {

int x =10;

String str1 = "name";
  Parent(){

 print("p cons");


}

  void ParentMethod(){

   print(x);
   print(str1);

}

}

  class child extends Parent {

    int x=20;
   String str1= "shubham";


     child(){


   print("c cons");


  }
     void childMethod(){

   print(x);
  print(str1);

}

}

 void main(){

 Parent obj1 = new Parent ();
  child obj2 = new child();

   print(obj2.x);
   print(obj2.str1);
   obj2.ParentMethod();


}
