class Parent {

    int? x=10;
   String? str= "shivam";

   void ParentMethod(){
    print(x);
    print(str);


}

}

  class child extends Parent {

    int? y=20;
  String? str2 ="shubham";

  void childMethod(){

    print(y);
    print(str2);

}


}

 void main(){


   child obj = new child();

   print(obj.y);
   print(obj.str2);

   obj.ParentMethod();
   obj.childMethod();




}