class Parent {
 int x=10;

 Parent(){
 print("In parent Cons");
 print(this.hashCode);
}
 void parentData(){
  print(x);
}
}

 class Child extends Parent {
  int x=20;

  Child(){
  print("child Const");
  print(this.hashCode);
}
  void dispData(){
  print(x);
}
}

void main(){

 Child obj = new Child();
 obj.dispData();
 obj.parentData();

}