class Parent {

   int x =10;

      String str1 = "Shivam";

       ParentMethod(){

      print(x);
      print(str1);


}

}


  class child extends Parent {

     int y=20;

       String str2 = "shiv";

         childMethod(){

          print(y);
          print(str2);

}

}


 
   void main(){



child obj2 = new child();

  print(obj2.x);
  print(obj2.str1);
  obj2.ParentMethod();


  print(obj2.y);
  print(obj2.str2);
  obj2.childMethod();

}